…
``` r
iris <- readr::read_csv('data/iris.csv')
```

Esto almacená en nuestro ambiente una variable llamada “iris” que tendrá
una estructura de data frame que es un arreglo que emula el
comportamiento de una matriz de datos en el que las variables se
representan por columnas y las observaciones por filas. Podemos echar un
vistazo a los datos al ejecutar en la consola el nombre del data frame.

``` r
iris
```

    ## # A tibble: 150 x 5
    ##    Sepal.Length Sepal.Width Petal.Length Petal.Width Species
    ##           <dbl>       <dbl>        <dbl>       <dbl> <chr>  
    ##  1          5.1         3.5          1.4         0.2 setosa 
    ##  2          4.9         3            1.4         0.2 setosa 
    ##  3          4.7         3.2          1.3         0.2 setosa 
    ##  4          4.6         3.1          1.5         0.2 setosa 
    ##  5          5           3.6          1.4         0.2 setosa 
    ##  6          5.4         3.9          1.7         0.4 setosa 
    ##  7          4.6         3.4          1.4         0.3 setosa 
    ##  8          5           3.4          1.5         0.2 setosa 
    ##  9          4.4         2.9          1.4         0.2 setosa 
    ## 10          4.9         3.1          1.5         0.1 setosa 
    ## # … with 140 more rows
…
#### Función `select()`:

Permite seleccionar o dejar seleccionar columnas específicas de acuerdo
a sus nombres en el orden en el que sean expresados los argumentos de la
función inmediatamente siguientes al data frame objetivo que es
expresado como primer argumento. Podría establecerse una equivalencia en
SQL con la sentencia `SELECT`.

``` r
library(dplyr)
select(iris, Species, Sepal.Length)
```

    ## # A tibble: 150 x 2
    ##    Species Sepal.Length
    ##    <chr>          <dbl>
    ##  1 setosa           5.1
    ##  2 setosa           4.9
    ##  3 setosa           4.7
    ##  4 setosa           4.6
    ##  5 setosa           5  
    ##  6 setosa           5.4
    ##  7 setosa           4.6
    ##  8 setosa           5  
    ##  9 setosa           4.4
    ## 10 setosa           4.9
    ## # … with 140 more rows

También, es posible seleccionar todas las columnas excepto las que sean
especificadas agregando un `-` en las variables que se desean excluir.
Por ejemplo:

``` r
library(dplyr)
select(iris, -Species, -Sepal.Length)
```

    ## # A tibble: 150 x 3
    ##    Sepal.Width Petal.Length Petal.Width
    ##          <dbl>        <dbl>       <dbl>
    ##  1         3.5          1.4         0.2
    ##  2         3            1.4         0.2
    ##  3         3.2          1.3         0.2
    ##  4         3.1          1.5         0.2
    ##  5         3.6          1.4         0.2
    ##  6         3.9          1.7         0.4
    ##  7         3.4          1.4         0.3
    ##  8         3.4          1.5         0.2
    ##  9         2.9          1.4         0.2
    ## 10         3.1          1.5         0.1
    ## # … with 140 more rows
…
Por ejemplo, si quisiéramos crear una variable llamada `greater_smaller`
que tome el valor “Greater than 4.6” cuando la variable Sepal.Lenght sea
mayor que 4.6 y que tome el valor “Other case” en cualquier otro caso,
podríamos hacer uso de:

``` r
mutate(
  iris, greater_smaller=case_when(
    Sepal.Length > 4.6 ~ 'Greater than 4.6',
    TRUE ~ 'Other case')
)
```

    ## # A tibble: 150 x 6
    ##    Sepal.Length Sepal.Width Petal.Length Petal.Width Species greater_smaller 
    ##           <dbl>       <dbl>        <dbl>       <dbl> <chr>   <chr>           
    ##  1          5.1         3.5          1.4         0.2 setosa  Greater than 4.6
    ##  2          4.9         3            1.4         0.2 setosa  Greater than 4.6
    ##  3          4.7         3.2          1.3         0.2 setosa  Greater than 4.6
    ##  4          4.6         3.1          1.5         0.2 setosa  Other case      
    ##  5          5           3.6          1.4         0.2 setosa  Greater than 4.6
    ##  6          5.4         3.9          1.7         0.4 setosa  Greater than 4.6
    ##  7          4.6         3.4          1.4         0.3 setosa  Other case      
    ##  8          5           3.4          1.5         0.2 setosa  Greater than 4.6
    ##  9          4.4         2.9          1.4         0.2 setosa  Other case      
    ## 10          4.9         3.1          1.5         0.1 setosa  Greater than 4.6
    ## # … with 140 more rows
…
Entonces, en caso del ejemplo anterior en el que se utilizó la función
`mutate()`, el código puede escribirse de una mejor forma:

``` r
iris %>% 
  mutate(
    greater_smaller=case_when(
    Sepal.Length > 4.6 ~ 'Greater than 4.6',
    TRUE ~ 'Other case')
  )
```

    ## # A tibble: 150 x 6
    ##    Sepal.Length Sepal.Width Petal.Length Petal.Width Species greater_smaller 
    ##           <dbl>       <dbl>        <dbl>       <dbl> <chr>   <chr>           
    ##  1          5.1         3.5          1.4         0.2 setosa  Greater than 4.6
    ##  2          4.9         3            1.4         0.2 setosa  Greater than 4.6
    ##  3          4.7         3.2          1.3         0.2 setosa  Greater than 4.6
    ##  4          4.6         3.1          1.5         0.2 setosa  Other case      
    ##  5          5           3.6          1.4         0.2 setosa  Greater than 4.6
    ##  6          5.4         3.9          1.7         0.4 setosa  Greater than 4.6
    ##  7          4.6         3.4          1.4         0.3 setosa  Other case      
    ##  8          5           3.4          1.5         0.2 setosa  Greater than 4.6
    ##  9          4.4         2.9          1.4         0.2 setosa  Other case      
    ## 10          4.9         3.1          1.5         0.1 setosa  Greater than 4.6
    ## # … with 140 more rows
…
